{
  "total_results": 2,
  "total_pages": 2,
  "prev_url": "/v2/service_brokers?page=1&results-per-page=100",
  "next_url": null,
  "resources": [
    {
      "metadata": {
        "guid": "service-broker-guid-2-guid",
        "url": "/v2/service_brokers/90a413fd-a636-4133-8bfb-a94b07839e96",
        "created_at": "2016-06-08T16:41:22Z",
        "updated_at": "2016-06-08T16:41:22Z"
      },
      "entity": {
        "name": "service-broker-name-2",
        "broker_url": "https://foo.com/url-2",
        "auth_username": "auth_username-2",
        "space_guid": "1d43e64d-ed64-43dd-9046-11f422bd407b"
      }
    }
  ]
}