{
  "total_results": 2,
  "total_pages": 2,
  "prev_url": null,
  "next_url": "/v2/service_plans/2777ad05-8114-4169-8188-2ef5f39e0c6b/service_instances?order-direction=asc&page=2&results-per-page=100&q=space_guid:a-space-guid",
  "resources": [
    {
      "metadata": {
        "guid": "f897f40d-0b2d-474a-a5c9-98426a2cb4b8",
        "url": "/v2/service_instances/f897f40d-0b2d-474a-a5c9-98426a2cb4b8",
        "created_at": "2016-07-07T10:39:49Z",
        "updated_at": "2016-07-07T10:47:23Z"
      },
      "entity": {
        "name": "k1",
        "credentials": {},
        "service_plan_guid": "2777ad05-8114-4169-8188-2ef5f39e0c6b",
        "space_guid": "a157c861-92bb-4f57-9108-f791260f66ab",
        "gateway_data": null,
        "dashboard_url": "http://example_dashboard.com/f897f40d-0b2d-474a-a5c9-98426a2cb4b8",
        "type": "managed_service_instance",
        "last_operation": {
          "type": "update",
          "state": "succeeded",
          "description": null,
          "updated_at": "2016-07-07T11:20:40Z",
          "created_at": "2016-07-07T11:20:40Z"
        },
        "tags": [],
        "space_url": "/v2/spaces/a157c861-92bb-4f57-9108-f791260f66ab",
        "service_plan_url": "/v2/service_plans/2777ad05-8114-4169-8188-2ef5f39e0c6b",
        "service_bindings_url": "/v2/service_instances/f897f40d-0b2d-474a-a5c9-98426a2cb4b8/service_bindings",
        "service_keys_url": "/v2/service_instances/f897f40d-0b2d-474a-a5c9-98426a2cb4b8/service_keys",
        "routes_url": "/v2/service_instances/f897f40d-0b2d-474a-a5c9-98426a2cb4b8/routes"
      }
    }
  ]
}
