{
  "total_results": 3,
  "total_pages": 3,
  "prev_url": "/v2/services?order-direction=asc&page=2&results-per-page=100",
  "next_url": null,
  "resources": [
    {
      "metadata": {
        "guid": "34c08156-5b5d-4cc1-9af1-29cda9ec056f",
        "url": "/v2/services/34c08156-5b5d-4cc1-9af1-29cda9ec056f",
        "created_at": "2016-07-05T16:44:24Z",
        "updated_at": "2016-07-07T11:18:33Z"
      },
      "entity": {
        "label": "redis-dev1",
        "provider": null,
        "url": null,
        "description": "Redis Dedicated Instance",
        "long_description": null,
        "version": null,
        "info_url": null,
        "active": true,
        "bindable": true,
        "unique_id": "8F3E8998-5FD0-4F32-924A-5478DC390A5F",
        "extra": "{\"displayName\":\"Redis\"}",
        "tags": [
          "redis",
          "pivotal"
        ],
        "requires": [

        ],
        "documentation_url": null,
        "service_broker_guid": "77a3ccd3-3d62-44e7-b6c5-b8f509c04f0d",
        "plan_updateable": true,
        "service_plans_url": "/v2/services/34c08156-5b5d-4cc1-9af1-29cda9ec056f/service_plans"
      }
    }
  ]
}
