{
  "total_results": 2,
  "total_pages": 2,
  "prev_url": "/v2/service_instances/92d707ce-c06c-421a-a1d2-ed1e750af650/service_bindings?order-direction=asc&page=1&results-per-page=100",
  "next_url": null,
  "resources": [
    {
      "metadata": {
        "guid": "9dad-6b2cb116-83a87158-92b2-46ea-be66",
        "url": "/v2/service_bindings/9dad-6b2cb116-83a87158-92b2-46ea-be66",
        "created_at": "2016-06-08T16:41:30Z",
        "updated_at": "2016-06-08T16:41:26Z"
      },
      "entity": {
        "app_guid": "eefe-662b3a98-31809eda-4bdd-44fcb804",
        "service_instance_guid": "92d707ce-c06c-421a-a1d2-ed1e750af650",
        "credentials": {
          "creds-key-48": "creds-val-48"
        },
        "binding_options": {

        },
        "gateway_data": null,
        "gateway_name": "",
        "syslog_drain_url": null,
        "volume_mounts": [

        ],
        "app_url": "/v2/apps/31809eda-4bdd-44fc-b804-eefe662b3a98",
        "service_instance_url": "/v2/service_instances/92d707ce-c06c-421a-a1d2-ed1e750af650"
      }
    }
  ]
}